^C:\USERS\ADM\SOURCE\REPOS\HOMEWORK14\DEBUG\HOMEWORK14.OBJ
C:\USERS\ADM\SOURCE\REPOS\HOMEWORK14\DEBUG\HOMEWORK14.EXE
C:\USERS\ADM\SOURCE\REPOS\HOMEWORK14\DEBUG\HOMEWORK14.ILK
C:\USERS\ADM\SOURCE\REPOS\HOMEWORK14\DEBUG\HOMEWORK14.PDB
